EESchema Schematic File Version 2
LIBS:power
LIBS:device
LIBS:transistors
LIBS:conn
LIBS:linear
LIBS:regul
LIBS:74xx
LIBS:cmos4000
LIBS:adc-dac
LIBS:memory
LIBS:xilinx
LIBS:microcontrollers
LIBS:dsp
LIBS:microchip
LIBS:analog_switches
LIBS:motorola
LIBS:texas
LIBS:intel
LIBS:audio
LIBS:interface
LIBS:digital-audio
LIBS:philips
LIBS:display
LIBS:cypress
LIBS:siliconi
LIBS:opto
LIBS:atmel
LIBS:contrib
LIBS:valves
LIBS:LevelShifter-cache
EELAYER 25 0
EELAYER END
$Descr A4 11693 8268
encoding utf-8
Sheet 1 1
Title ""
Date ""
Rev ""
Comp ""
Comment1 ""
Comment2 ""
Comment3 ""
Comment4 ""
$EndDescr
$Comp
L CONN_02X05 P3
U 1 1 5949B57E
P 5700 1550
F 0 "P3" H 5700 1850 50  0000 C CNN
F 1 "targetHeader" H 5700 1250 50  0000 C CNN
F 2 "" H 5700 350 50  0001 C CNN
F 3 "" H 5700 350 50  0000 C CNN
	1    5700 1550
	1    0    0    -1  
$EndComp
$Comp
L CONN_02X05 P1
U 1 1 5949B5CC
P 2400 1200
F 0 "P1" H 2400 1500 50  0000 C CNN
F 1 "debuggerHeader" H 2400 900 50  0000 C CNN
F 2 "Socket_Strips:Socket_Strip_Straight_2x05" H 2400 0   50  0001 C CNN
F 3 "" H 2400 0   50  0000 C CNN
	1    2400 1200
	1    0    0    -1  
$EndComp
Text GLabel 1850 1000 0    60   Input ~ 0
dbg_SWDIO
Text GLabel 2950 1000 2    60   Input ~ 0
dbg_RST
$Comp
L GND #PWR01
U 1 1 5949B96F
P 2750 1850
F 0 "#PWR01" H 2750 1600 50  0001 C CNN
F 1 "GND" H 2750 1700 50  0000 C CNN
F 2 "" H 2750 1850 50  0000 C CNN
F 3 "" H 2750 1850 50  0000 C CNN
	1    2750 1850
	1    0    0    -1  
$EndComp
Text GLabel 2950 1200 2    60   Input ~ 0
dbg_SWIM
Text GLabel 1850 1200 0    60   Input ~ 0
dbg_SWCLK
$Comp
L +3.3V #PWR02
U 1 1 5949BAFF
P 3250 1500
F 0 "#PWR02" H 3250 1350 50  0001 C CNN
F 1 "+3.3V" H 3250 1640 50  0000 C CNN
F 2 "" H 3250 1500 50  0000 C CNN
F 3 "" H 3250 1500 50  0000 C CNN
	1    3250 1500
	1    0    0    -1  
$EndComp
$Comp
L +5V #PWR03
U 1 1 5949BB19
P 3550 1500
F 0 "#PWR03" H 3550 1350 50  0001 C CNN
F 1 "+5V" H 3550 1640 50  0000 C CNN
F 2 "" H 3550 1500 50  0000 C CNN
F 3 "" H 3550 1500 50  0000 C CNN
	1    3550 1500
	1    0    0    -1  
$EndComp
Wire Wire Line
	2650 1000 2950 1000
Wire Wire Line
	2150 1000 1850 1000
Wire Wire Line
	2650 1100 2750 1100
Wire Wire Line
	2750 1100 2750 1850
Wire Wire Line
	2150 1100 1950 1100
Wire Wire Line
	1950 1100 1950 1750
Wire Wire Line
	1950 1750 2750 1750
Connection ~ 2750 1750
Wire Wire Line
	2950 1200 2650 1200
Wire Wire Line
	1850 1200 2150 1200
Wire Wire Line
	2650 1300 2900 1300
Wire Wire Line
	2900 1300 2900 1700
Wire Wire Line
	2150 1300 2000 1300
Wire Wire Line
	2000 1300 2000 1700
Wire Wire Line
	2000 1700 3250 1700
Wire Wire Line
	3250 1700 3250 1500
Connection ~ 2900 1700
Wire Wire Line
	2150 1400 2050 1400
Wire Wire Line
	2050 1400 2050 1650
Wire Wire Line
	2050 1650 3550 1650
Wire Wire Line
	3550 1650 3550 1500
Wire Wire Line
	2650 1400 3050 1400
Wire Wire Line
	3050 1400 3050 1650
Connection ~ 3050 1650
Text GLabel 4400 1350 0    60   Input ~ 0
Vref
Wire Wire Line
	4400 1350 5450 1350
$Comp
L CONN_01X03 P2
U 1 1 5949C169
P 5100 750
F 0 "P2" V 5300 750 50  0000 C CNN
F 1 "power_select" V 5200 750 50  0000 C CNN
F 2 "Pin_Headers:Pin_Header_Straight_1x03" H 5100 750 50  0001 C CNN
F 3 "" H 5100 750 50  0000 C CNN
	1    5100 750 
	0    -1   -1   0   
$EndComp
Wire Wire Line
	5100 950  5100 1350
Connection ~ 5100 1350
Wire Wire Line
	5200 950  5500 950 
Wire Wire Line
	5500 950  5500 800 
$Comp
L +5V #PWR04
U 1 1 5949C236
P 5500 800
F 0 "#PWR04" H 5500 650 50  0001 C CNN
F 1 "+5V" H 5500 940 50  0000 C CNN
F 2 "" H 5500 800 50  0000 C CNN
F 3 "" H 5500 800 50  0000 C CNN
	1    5500 800 
	1    0    0    -1  
$EndComp
Wire Wire Line
	5000 950  4700 950 
Wire Wire Line
	4700 950  4700 800 
$Comp
L +3.3V #PWR05
U 1 1 5949C277
P 4700 800
F 0 "#PWR05" H 4700 650 50  0001 C CNN
F 1 "+3.3V" H 4700 940 50  0000 C CNN
F 2 "" H 4700 800 50  0000 C CNN
F 3 "" H 4700 800 50  0000 C CNN
	1    4700 800 
	1    0    0    -1  
$EndComp
Text GLabel 6250 1350 2    60   Output ~ 0
tgt_SWDIO
Text GLabel 6250 1450 2    60   Output ~ 0
tgt_SWCLK
Wire Wire Line
	5450 1450 5200 1450
Wire Wire Line
	5200 1450 5200 2000
Wire Wire Line
	5450 1550 5200 1550
Connection ~ 5200 1550
$Comp
L GND #PWR06
U 1 1 5949C42F
P 5200 2000
F 0 "#PWR06" H 5200 1750 50  0001 C CNN
F 1 "GND" H 5200 1850 50  0000 C CNN
F 2 "" H 5200 2000 50  0000 C CNN
F 3 "" H 5200 2000 50  0000 C CNN
	1    5200 2000
	1    0    0    -1  
$EndComp
Wire Wire Line
	5950 1350 6250 1350
Wire Wire Line
	6250 1450 5950 1450
Text GLabel 6250 1750 2    60   Output ~ 0
tgt_RST
Wire Wire Line
	6250 1750 5950 1750
NoConn ~ 5450 1650
NoConn ~ 5450 1750
Wire Wire Line
	5950 1650 7000 1650
$Comp
L LED D1
U 1 1 5949C6CD
P 7000 1850
F 0 "D1" H 7000 1950 50  0000 C CNN
F 1 "LED" H 7000 1750 50  0000 C CNN
F 2 "LEDs:LED-5MM" H 7000 1850 50  0001 C CNN
F 3 "" H 7000 1850 50  0000 C CNN
	1    7000 1850
	0    -1   -1   0   
$EndComp
$Comp
L R R6
U 1 1 5949C783
P 7000 2250
F 0 "R6" V 7080 2250 50  0000 C CNN
F 1 "68" V 7000 2250 50  0000 C CNN
F 2 "Resistors_ThroughHole:Resistor_Horizontal_RM10mm" V 6930 2250 50  0001 C CNN
F 3 "" H 7000 2250 50  0000 C CNN
	1    7000 2250
	1    0    0    -1  
$EndComp
$Comp
L GND #PWR07
U 1 1 5949C807
P 7000 2450
F 0 "#PWR07" H 7000 2200 50  0001 C CNN
F 1 "GND" H 7000 2300 50  0000 C CNN
F 2 "" H 7000 2450 50  0000 C CNN
F 3 "" H 7000 2450 50  0000 C CNN
	1    7000 2450
	1    0    0    -1  
$EndComp
Wire Wire Line
	7000 2050 7000 2100
Wire Wire Line
	7000 2400 7000 2450
$Comp
L BS107 Q1
U 1 1 5949CAE6
P 1800 4250
F 0 "Q1" H 2000 4325 50  0000 L CNN
F 1 "BS107" H 2000 4250 50  0000 L CNN
F 2 "TO_SOT_Packages_THT:TO-92_Inline_Wide" H 2000 4175 50  0000 L CIN
F 3 "" H 1800 4250 50  0000 L CNN
	1    1800 4250
	0    1    1    0   
$EndComp
$Comp
L R R1
U 1 1 5949CCB3
P 1450 4100
F 0 "R1" V 1530 4100 50  0000 C CNN
F 1 "10k" V 1450 4100 50  0000 C CNN
F 2 "Resistors_ThroughHole:Resistor_Horizontal_RM10mm" V 1380 4100 50  0001 C CNN
F 3 "" H 1450 4100 50  0000 C CNN
	1    1450 4100
	1    0    0    -1  
$EndComp
Wire Wire Line
	1050 4350 1600 4350
Wire Wire Line
	1450 4250 1450 4350
Connection ~ 1450 4350
$Comp
L +3.3V #PWR08
U 1 1 5949CE51
P 1450 3700
F 0 "#PWR08" H 1450 3550 50  0001 C CNN
F 1 "+3.3V" H 1450 3840 50  0000 C CNN
F 2 "" H 1450 3700 50  0000 C CNN
F 3 "" H 1450 3700 50  0000 C CNN
	1    1450 3700
	1    0    0    -1  
$EndComp
Text GLabel 1050 4350 0    60   Input ~ 0
dbg_RST
Wire Wire Line
	1450 3700 1450 3950
Wire Wire Line
	1750 4050 1750 3850
Wire Wire Line
	1750 3850 1450 3850
Connection ~ 1450 3850
Text GLabel 2300 4350 2    60   Input ~ 0
tgt_RST
$Comp
L R R2
U 1 1 5949D271
P 2150 4100
F 0 "R2" V 2230 4100 50  0000 C CNN
F 1 "10k" V 2150 4100 50  0000 C CNN
F 2 "Resistors_ThroughHole:Resistor_Horizontal_RM10mm" V 2080 4100 50  0001 C CNN
F 3 "" H 2150 4100 50  0000 C CNN
	1    2150 4100
	1    0    0    -1  
$EndComp
Text GLabel 2150 3700 1    60   Input ~ 0
Vref
Wire Wire Line
	2150 3700 2150 3950
Wire Wire Line
	2000 4350 2300 4350
Wire Wire Line
	2150 4250 2150 4350
Connection ~ 2150 4350
$Comp
L BS107 Q2
U 1 1 5949DA59
P 4300 4250
F 0 "Q2" H 4500 4325 50  0000 L CNN
F 1 "BS107" H 4500 4250 50  0000 L CNN
F 2 "TO_SOT_Packages_THT:TO-92_Inline_Wide" H 4500 4175 50  0000 L CIN
F 3 "" H 4300 4250 50  0000 L CNN
	1    4300 4250
	0    1    1    0   
$EndComp
$Comp
L R R3
U 1 1 5949DA5F
P 3950 4100
F 0 "R3" V 4030 4100 50  0000 C CNN
F 1 "10k" V 3950 4100 50  0000 C CNN
F 2 "Resistors_ThroughHole:Resistor_Horizontal_RM10mm" V 3880 4100 50  0001 C CNN
F 3 "" H 3950 4100 50  0000 C CNN
	1    3950 4100
	1    0    0    -1  
$EndComp
Wire Wire Line
	3550 4350 4100 4350
Wire Wire Line
	3950 4250 3950 4350
Connection ~ 3950 4350
$Comp
L +3.3V #PWR09
U 1 1 5949DA69
P 3950 3700
F 0 "#PWR09" H 3950 3550 50  0001 C CNN
F 1 "+3.3V" H 3950 3840 50  0000 C CNN
F 2 "" H 3950 3700 50  0000 C CNN
F 3 "" H 3950 3700 50  0000 C CNN
	1    3950 3700
	1    0    0    -1  
$EndComp
Text GLabel 3550 4350 0    60   Input ~ 0
dbg_SWIM
Wire Wire Line
	3950 3700 3950 3950
Wire Wire Line
	4250 4050 4250 3850
Wire Wire Line
	4250 3850 3950 3850
Connection ~ 3950 3850
Text GLabel 4800 4350 2    60   Input ~ 0
tgt_SWIM
$Comp
L R R4
U 1 1 5949DA76
P 4650 4100
F 0 "R4" V 4730 4100 50  0000 C CNN
F 1 "10k" V 4650 4100 50  0000 C CNN
F 2 "Resistors_ThroughHole:Resistor_Horizontal_RM10mm" V 4580 4100 50  0001 C CNN
F 3 "" H 4650 4100 50  0000 C CNN
	1    4650 4100
	1    0    0    -1  
$EndComp
Text GLabel 4650 3700 1    60   Input ~ 0
Vref
Wire Wire Line
	4650 3700 4650 3950
Wire Wire Line
	4500 4350 4800 4350
Wire Wire Line
	4650 4250 4650 4350
Connection ~ 4650 4350
$Comp
L BS107 Q3
U 1 1 5949DCAA
P 6800 4250
F 0 "Q3" H 7000 4325 50  0000 L CNN
F 1 "BS107" H 7000 4250 50  0000 L CNN
F 2 "TO_SOT_Packages_THT:TO-92_Inline_Wide" H 7000 4175 50  0000 L CIN
F 3 "" H 6800 4250 50  0000 L CNN
	1    6800 4250
	0    1    1    0   
$EndComp
$Comp
L R R5
U 1 1 5949DCB0
P 6450 4100
F 0 "R5" V 6530 4100 50  0000 C CNN
F 1 "10k" V 6450 4100 50  0000 C CNN
F 2 "Resistors_ThroughHole:Resistor_Horizontal_RM10mm" V 6380 4100 50  0001 C CNN
F 3 "" H 6450 4100 50  0000 C CNN
	1    6450 4100
	1    0    0    -1  
$EndComp
Wire Wire Line
	6050 4350 6600 4350
Wire Wire Line
	6450 4250 6450 4350
Connection ~ 6450 4350
$Comp
L +3.3V #PWR010
U 1 1 5949DCBA
P 6450 3700
F 0 "#PWR010" H 6450 3550 50  0001 C CNN
F 1 "+3.3V" H 6450 3840 50  0000 C CNN
F 2 "" H 6450 3700 50  0000 C CNN
F 3 "" H 6450 3700 50  0000 C CNN
	1    6450 3700
	1    0    0    -1  
$EndComp
Text GLabel 6050 4350 0    60   Input ~ 0
dbg_SWDIO
Wire Wire Line
	6450 3700 6450 3950
Wire Wire Line
	6750 4050 6750 3850
Wire Wire Line
	6750 3850 6450 3850
Connection ~ 6450 3850
Text GLabel 7300 4350 2    60   Input ~ 0
tgt_SWDIO
$Comp
L R R7
U 1 1 5949DCC7
P 7150 4100
F 0 "R7" V 7230 4100 50  0000 C CNN
F 1 "10k" V 7150 4100 50  0000 C CNN
F 2 "Resistors_ThroughHole:Resistor_Horizontal_RM10mm" V 7080 4100 50  0001 C CNN
F 3 "" H 7150 4100 50  0000 C CNN
	1    7150 4100
	1    0    0    -1  
$EndComp
Text GLabel 7150 3700 1    60   Input ~ 0
Vref
Wire Wire Line
	7150 3700 7150 3950
Wire Wire Line
	7000 4350 7300 4350
Wire Wire Line
	7150 4250 7150 4350
Connection ~ 7150 4350
Text Notes 1000 3300 2    87   ~ 17
SWD IO:
Text Notes 3500 3300 2    87   ~ 17
SWD CLK:
Text Notes 6200 3300 2    87   ~ 17
RESET:
$Comp
L +3.3V #PWR011
U 1 1 5949E82C
P 7850 1150
F 0 "#PWR011" H 7850 1000 50  0001 C CNN
F 1 "+3.3V" H 7850 1290 50  0000 C CNN
F 2 "" H 7850 1150 50  0000 C CNN
F 3 "" H 7850 1150 50  0000 C CNN
	1    7850 1150
	1    0    0    -1  
$EndComp
$Comp
L +5V #PWR012
U 1 1 5949E92E
P 8200 1150
F 0 "#PWR012" H 8200 1000 50  0001 C CNN
F 1 "+5V" H 8200 1290 50  0000 C CNN
F 2 "" H 8200 1150 50  0000 C CNN
F 3 "" H 8200 1150 50  0000 C CNN
	1    8200 1150
	1    0    0    -1  
$EndComp
$Comp
L PWR_FLAG #FLG013
U 1 1 5949E988
P 8200 1200
F 0 "#FLG013" H 8200 1295 50  0001 C CNN
F 1 "PWR_FLAG" H 8200 1380 50  0000 C CNN
F 2 "" H 8200 1200 50  0000 C CNN
F 3 "" H 8200 1200 50  0000 C CNN
	1    8200 1200
	-1   0    0    1   
$EndComp
$Comp
L PWR_FLAG #FLG014
U 1 1 5949E9C4
P 7850 1200
F 0 "#FLG014" H 7850 1295 50  0001 C CNN
F 1 "PWR_FLAG" H 7850 1380 50  0000 C CNN
F 2 "" H 7850 1200 50  0000 C CNN
F 3 "" H 7850 1200 50  0000 C CNN
	1    7850 1200
	-1   0    0    1   
$EndComp
Wire Wire Line
	8200 1150 8200 1200
Wire Wire Line
	7850 1150 7850 1200
$Comp
L GND #PWR015
U 1 1 5949EFD7
P 8750 1200
F 0 "#PWR015" H 8750 950 50  0001 C CNN
F 1 "GND" H 8750 1050 50  0000 C CNN
F 2 "" H 8750 1200 50  0000 C CNN
F 3 "" H 8750 1200 50  0000 C CNN
	1    8750 1200
	1    0    0    -1  
$EndComp
$Comp
L PWR_FLAG #FLG016
U 1 1 5949F03D
P 8750 1150
F 0 "#FLG016" H 8750 1245 50  0001 C CNN
F 1 "PWR_FLAG" H 8750 1330 50  0000 C CNN
F 2 "" H 8750 1150 50  0000 C CNN
F 3 "" H 8750 1150 50  0000 C CNN
	1    8750 1150
	1    0    0    -1  
$EndComp
Wire Wire Line
	8750 1150 8750 1200
$Comp
L BS107 Q4
U 1 1 594A0B93
P 9150 4250
F 0 "Q4" H 9350 4325 50  0000 L CNN
F 1 "BS107" H 9350 4250 50  0000 L CNN
F 2 "TO_SOT_Packages_THT:TO-92_Inline_Wide" H 9350 4175 50  0000 L CIN
F 3 "" H 9150 4250 50  0000 L CNN
	1    9150 4250
	0    1    1    0   
$EndComp
$Comp
L R R8
U 1 1 594A0B99
P 8800 4100
F 0 "R8" V 8880 4100 50  0000 C CNN
F 1 "10k" V 8800 4100 50  0000 C CNN
F 2 "Resistors_ThroughHole:Resistor_Horizontal_RM10mm" V 8730 4100 50  0001 C CNN
F 3 "" H 8800 4100 50  0000 C CNN
	1    8800 4100
	1    0    0    -1  
$EndComp
Wire Wire Line
	8400 4350 8950 4350
Wire Wire Line
	8800 4250 8800 4350
Connection ~ 8800 4350
$Comp
L +3.3V #PWR017
U 1 1 594A0BA2
P 8800 3700
F 0 "#PWR017" H 8800 3550 50  0001 C CNN
F 1 "+3.3V" H 8800 3840 50  0000 C CNN
F 2 "" H 8800 3700 50  0000 C CNN
F 3 "" H 8800 3700 50  0000 C CNN
	1    8800 3700
	1    0    0    -1  
$EndComp
Text GLabel 8400 4350 0    60   Input ~ 0
dbg_SWCLK
Wire Wire Line
	8800 3700 8800 3950
Wire Wire Line
	9100 4050 9100 3850
Wire Wire Line
	9100 3850 8800 3850
Connection ~ 8800 3850
Text GLabel 9650 4350 2    60   Input ~ 0
tgt_SWCLK
$Comp
L R R9
U 1 1 594A0BAE
P 9500 4100
F 0 "R9" V 9580 4100 50  0000 C CNN
F 1 "10k" V 9500 4100 50  0000 C CNN
F 2 "Resistors_ThroughHole:Resistor_Horizontal_RM10mm" V 9430 4100 50  0001 C CNN
F 3 "" H 9500 4100 50  0000 C CNN
	1    9500 4100
	1    0    0    -1  
$EndComp
Text GLabel 9500 3700 1    60   Input ~ 0
Vref
Wire Wire Line
	9500 3700 9500 3950
Wire Wire Line
	9350 4350 9650 4350
Wire Wire Line
	9500 4250 9500 4350
Connection ~ 9500 4350
Text Notes 8550 3300 2    87   ~ 17
SWD IM:
Text GLabel 6250 1550 2    60   Output ~ 0
tgt_SWIM
Wire Wire Line
	6250 1550 5950 1550
$EndSCHEMATC
